Joshua Pudrycki 
jdp877
11153313

CMPT 381 Assignment 6

How to run:

1.  Open up in IDE, such as Intellij
2.  Main is main file to run.  

tips:  run in full screen so edges are not cut off.



